{
  "users": [
    {
      "name": "siri",
      "mno": "960345",
      "sapId": "123456",
      "email": "sr@hcl.com",
      "gender": "female ",
      "id": 4
    },
    {
      "name": "venkat2",
      "mno": "9500127189",
      "sapId": "51859372",
      "email": "venkatesh,embadi@hcl.com",
      "gender": "female ",
      "id": 5
    },
    {
      "name": "rad",
      "mno": "956667",
      "sapId": "567567",
      "email": "sr@hcl.com",
      "gender": "female ",
      "id": 6
    }
  ]
}